,Turnout Rates,,,Numerators,,Denominators,,VEP Components (Modifications to VAP to Calculate VEP),,,,,,
State,VEP Total Ballots Counted,VEP Highest Office,VAP Highest Office,Total Ballots Counted,Highest Office,Voting-Eligible Population (VEP),Voting-Age Population (VAP),% Non-citizen,Prison,Probation,Parole,Total Ineligible Felon,Overseas Eligible,State Abv
United States,58.60%,0.58,0.536,"130,292,355","129,070,906","222,474,111","240,957,993",8.40%,"1,473,412","2,342,582","637,410","3,352,390","5,127,418",
Alabama,,0.586,0.56,,"2,074,338","3,539,217","3,707,440",2.60%,"32,232","57,993","8,616","71,584",,AL
Alaska,58.90%,0.587,0.553,"301,694","300,495","511,792","543,763",3.80%,"5,633","7,173","1,882","11,317",,AK
Arizona,53.00%,0.526,0.465,"2,323,579","2,306,559","4,387,900","4,959,270",9.90%,"35,188","72,452","7,460","81,048",,AZ
Arkansas,51.10%,0.507,0.477,"1,078,548","1,069,468","2,109,847","2,242,740",3.50%,"14,471","30,122","23,372","53,808",,AR
California,55.70%,0.551,0.451,"13,202,158","13,038,547","23,681,837","28,913,129",17.40%,"119,455",0,"89,287","208,742",,CA
Colorado,70.60%,0.699,0.645,"2,596,173","2,569,522","3,675,871","3,981,208",6.90%,"18,807",0,"11,458","30,265",,CO
Connecticut,61.40%,0.613,0.556,"1,560,640","1,558,960","2,543,202","2,801,375",8.50%,"16,935",0,"2,793","19,728",,CT
Delaware,,0.623,0.578,,"413,921","663,967","715,708",5.10%,"6,610","15,641",601,"15,501",,DE
District of Columbia,61.60%,0.615,0.555,"294,254","293,764","477,582","528,848",9.70%,0,0,0,0,,DC
Florida,63.30%,0.628,0.551,"8,538,264","8,474,179","13,495,057","15,380,947",10.80%,"91,954","240,869","4,538","224,153",,FL
Georgia,59.30%,0.59,0.523,"3,919,355","3,900,050","6,606,607","7,452,696",7.20%,"52,737","442,061","24,761","311,790",,GA
Hawaii,44.50%,0.442,0.399,"437,159","434,697","982,902","1,088,335",9.20%,"5,544",0,0,"5,544",,HI
Idaho,61.00%,0.598,0.556,"666,290","652,274","1,091,410","1,173,727",4.60%,"7,985","31,606","3,848","28,584",,ID
Illinois,59.30%,0.589,0.533,"5,279,752","5,242,014","8,899,143","9,827,043",8.90%,"49,348",0,0,"49,348",,IL
Indiana,56.00%,0.552,0.529,"2,663,368","2,624,534","4,755,291","4,960,376",3.60%,"28,266",0,0,"28,266",,IN
Iowa,70.60%,0.703,0.671,"1,589,951","1,582,180","2,251,748","2,356,209",3.20%,"8,470","29,333","5,151","29,167",,IA
Kansas,58.20%,0.569,0.535,"1,182,771","1,156,254","2,030,686","2,162,442",5.00%,"9,346","17,021","5,126","23,493",,KS
Kentucky,56.20%,0.557,0.534,"1,815,843","1,797,212","3,229,185","3,368,684",2.20%,"21,863","54,511","14,419","65,173",,KY
Louisiana,60.80%,0.602,0.57,"2,014,548","1,994,065","3,311,626","3,495,847",2.70%,"40,047","41,298","28,946","90,881",,LA
Maine,69.30%,0.682,0.67,"724,758","713,180","1,046,008","1,064,779",1.80%,0,0,0,0,,ME
Maryland,67.30%,0.666,0.595,"2,734,062","2,707,327","4,063,582","4,553,853",8.90%,"20,871","96,640","13,195","85,285",,MD
Massachusetts,66.20%,0.659,0.602,"3,184,196","3,167,767","4,809,675","5,263,550",8.40%,"10,283",0,0,"10,283",,MA
Michigan,65.40%,0.647,0.62,"4,780,701","4,730,961","7,312,725","7,625,576",3.50%,"43,019",0,0,"43,019",,MI
Minnesota,76.40%,0.76,0.714,"2,950,780","2,936,561","3,861,598","4,114,820",4.40%,"9,383","108,157","6,006","72,712",,MN
Mississippi,,0.593,0.572,,"1,285,584","2,166,825","2,246,931",1.50%,"22,305","30,768","6,804","45,416",,MS
Missouri,,0.622,0.596,,"2,757,323","4,432,957","4,628,500",2.50%,"30,714","55,470","20,672","80,785",,MO
Montana,63.50%,0.625,0.616,"491,966","484,048","774,476","785,454",0.90%,"3,592",0,0,"3,592",,MT
Nebraska,61.10%,0.603,0.569,"804,245","794,379","1,316,915","1,396,507",4.70%,"4,466","14,260","1,383","13,407",,NE
Nevada,56.50%,0.564,0.482,"1,016,664","1,014,918","1,800,969","2,105,976",13.30%,"12,883","11,321","5,379","24,262",,NV
New Hampshire,70.90%,0.702,0.678,"718,700","710,972","1,013,420","1,047,978",3.00%,"2,672",0,0,"2,672",,NH
New Jersey,62.20%,0.615,0.532,"3,683,638","3,640,292","5,918,182","6,847,503",12.10%,"21,759","114,886","14,987","97,636",,NJ
New Mexico,54.80%,0.546,0.498,"786,522","783,757","1,436,363","1,573,400",7.30%,"6,553","21,381","5,078","22,963",,NM
New York,53.50%,0.531,0.461,"7,128,852","7,074,723","13,324,107","15,344,671",12.50%,"49,889",0,"46,222","96,111",,NY
North Carolina,65.40%,0.648,0.601,"4,542,488","4,505,372","6,947,954","7,496,980",6.10%,"35,567","96,070","4,359","90,843",,NC
North Dakota,60.40%,0.598,0.587,"325,564","322,627","539,164","549,955",1.70%,"1,500",0,0,"1,500",,ND
Ohio,65.10%,0.645,0.627,"5,632,423","5,580,822","8,649,495","8,896,930",2.20%,"50,313",0,0,"50,313",,OH
Oklahoma,,0.492,0.463,,"1,334,872","2,713,268","2,885,093",4.50%,"25,225","25,506","2,310","41,053",,OK
Oregon,64.20%,0.631,0.587,"1,820,507","1,789,270","2,836,101","3,050,747",6.60%,"13,607",0,0,"13,607",,OR
Pennsylvania,,0.595,0.572,,"5,742,040","9,651,432","10,037,099",3.30%,"50,054",0,0,"50,054",,PA
Rhode Island,,0.58,0.534,,"446,049","768,918","834,983",7.50%,"3,249",0,0,"3,249",,RI
South Carolina,56.80%,0.563,0.536,"1,981,516","1,964,118","3,486,838","3,662,322",3.50%,"21,895","34,945","6,116","46,532",,SC
South Dakota,60.10%,0.593,0.576,"368,270","363,815","613,190","631,472",1.90%,"3,574",0,"2,761","6,335",,SD
Tennessee,52.30%,0.519,0.494,"2,478,870","2,458,577","4,736,084","4,976,284",3.30%,"28,135","64,430","13,138","75,421",,TN
Texas,,0.496,0.417,,"7,993,851","16,119,973","19,185,395",13.50%,"157,564","405,473","112,288","484,753",,TX
Utah,56.10%,0.555,0.514,"1,028,786","1,017,440","1,833,339","1,978,956",7.00%,"6,611",0,0,"6,611",,UT
Vermont,61.20%,0.607,0.596,"301,793","299,290","493,355","502,242",1.80%,0,0,0,0,,VT
Virginia,66.60%,0.661,0.607,"3,888,186","3,854,489","5,834,676","6,348,827",7.10%,"36,425","52,956","1,983","66,475",,VA
Washington,65.80%,0.648,0.586,"3,172,939","3,125,516","4,822,060","5,329,782",8.20%,"16,355","88,339","8,895","72,070",,WA
West Virginia,,0.463,0.455,,"670,438","1,447,066","1,472,642",0.80%,"7,052","8,573","2,052","13,648",,WV
Wisconsin,65.80%,0.729,0.695,"3,084,115","3,068,434","4,209,370","4,417,273",3.20%,"21,987","46,328","20,023","66,564",,WI
Wyoming,59.00%,0.586,0.564,"250,701","249,061","425,142","441,726",2.50%,"2,163","5,162",762,"5,661",,WY
